1.0515469
1.0456568
1.2745732
1.4175784
2.5978368
2.4889384
2.8456359
3.3701516
5.4420119
6.7529163
7.5287373
7.9486580
8.9399793
10.6541014
10.5827531
10.4647720
10.0260373
9.9860563
17.2734116
16.4572157
16.0006309
20.1415893
