0.0603757
0.0494579
0.0428517
0.0262059
0.0088220
0.0000416
0.0239583
0.0012024
0.0201447
0.0061412
0.0293719
0.0041696
0.0292170
0.0239516
0.0212956
0.0436158
0.0286421
0.0772699
0.0155487
0.0965037
0.0373862
0.0927650
0.0217889
