1.05665050301
1.04484004802
1.29639838956
1.43164362421
2.71299604707
2.47770621651
2.87929858077
3.4220527767
5.64346195477
6.88237738543
7.60037329777
7.98699005741
9.03306059375
10.8214810477
10.5665050301
10.4484004802
9.975423998
9.975423998
17.9886006834
16.3745078899
15.9361402716
20.5465298233
