0.849524759308
0.00678761777314
0.239579383775
0.105660341932
0.732201384491
0.179610532836
0.441310364394
0.417503242952
1.29151694251
0.953011729913
0.520286939742
0.220923862651
0.968583898368
1.20839218304
0.148241868232
0.103600472835
0.347776851973
0.0
6.56817745695
1.77372817721
0.267297349993
2.60473988779
2.04315777208
3.24469700315
