1
0.3400042
0.2998046
0.4742325
1.6931648
1.9699980
3.1440866
2.9132990
2.4936264
2.3853124
3.1381052
4.1435142
7.5187668
7.2017513
8.7531352
9.7284761
9.6843204
11.5852579
12.2214946
11.9382516
12.3433656
13.7443977
