0
0.0279138
0.0244884
0.0224879
0.0261426
0.0110336
0.0015156
0.0291302
0.0002446
0.0224957
0.0032481
0.0212385
0.0052893
0.0649388
0.0075372
0.0684548
0.0210659
0.0597143
0.0444392
0.0680723
0.0393732
0.0657030
