1
0.7603489
1.6129270
2.4973945
2.2867798
1.7600674
1.8133642
1.8016287
2.2937686
2.7274650
3.4516237
4.3319883
6.5648077
6.3684561
6.0610939
7.2563129
8.0874748
9.6580711
11.4717760
11.2599230
10.7647860
10.6709735
10.6406919
12.0052000
11.9341375
11.5297097
12.1913916
11.5241136
12.1352648
12.5738281
16.1293254
15.8478357
17.8627676
17.7674110
17.8417379
18.8029570
18.5614089
20.1591166
19.8730491
19.9663391
19.7311824
19.8258931
19.7790658
19.9921042
19.6476466
19.8624595
19.9450182
19.6436858
19.7085186
19.8911181
19.8940117
19.4193053
19.7339417
19.3600025
19.6731454
19.3786888
19.6216002
19.4089346
19.4791379
19.7448642
19.7452780
19.7257611
19.1247466
19.1118263
19.3781909
19.6533536
19.2313625
19.3336594
19.5877409
19.1645871
19.0789512
18.9591203
19.5563227
18.9338352
19.2448267
18.8548769
19.4806524
19.5678084
19.5574549
19.0052461
19.1420989
19.5050328
8.3110743
-0.0398150
-1.3752180
-0.8741069
-1.2865288
-0.9092634
-1.2051293
-0.8806166
-1.2772341
-1.0969320
-1.0286231
-1.2211162
-1.0080174
-0.9252446
-1.0824517
-0.6730401
-0.7846936
-0.6040976
-0.4036089
-0.8770809
-0.4875333
