1
0.5380535
0.4828020
0.5153498
1.1369998
2.1267360
2.7678280
2.8875897
2.7590923
3.5267474
5.5722009
7.8142449
7.5924641
11.0634411
10.4930694
11.0017681
11.4161496
12.1041244
13.5713977
13.3782011
12.2346696
13.8555118
13.3077532
12.0061987
12.2523874
16.1565910
17.9493690
