0.292290272114
0.607666775591
1.19333377431
2.71434778152
2.29579342594
2.88073317448
4.91367687064
5.94494299933
7.00964324615
10.1403105195
12.5645718715
12.9954809174
12.4651042563
14.0976815103
18.9495750228
17.410625002
14.4657373731
20.0724079335
