-2.09842834175
0.00919464049061
0.118400710321
0.912513834031
0.0772340930791
0.600321151681
-0.255413410309
-0.305062130927
-0.0299443379682
0.309337861725
0.427947785992
2.40500975284
-0.262852807093
0.9483671581
0.338673034832
-0.0885212692971
0.774808050159
0.185447350614
-0.172624002462
0.184026927101
0.758257258276
