-0.408911421805
-0.0296817500321
0.0604090103796
1.08142781493
-0.129237733064
-0.0441828243891
0.162459680971
0.978762466194
0.758636319222
1.34535887196
-0.221883715248
0.0540876217509
1.791477635
0.928346425653
-0.261619596793
-0.639611332087
-0.467532894339
0.413297648085
