
Fri  8 Mar 10:34:45 GMT 2019

-44
-44
-48
-48
-54
-54
-47
-47
-48
-48
-50
-50
-52
-52
-57
-57
-58
-58
-60
-60
-67
-67
-69
-69
-73
-73
-78
-78
-78
-78
-80
-80
-80
-80
-80
-80
-80
-80
-86
-86
-85
-85
-88
-88
-90
-90
-88
-88
-88
-88
-88
-88
-88
-88














-53
-53
-49
-49
-51
-51
-45
-45
-46
-46
-48
-48
-47
-47
-38
-38
-31
-31
-29
-29
-29
-29
-29
-29
-34
-34
-50
-50
-51
-51
-60
-60
-48
-48
-45
-45
-52
-52
-54
-54
-56
-56
-63
-63
-64
-64
-70
-70
-78
-78
-75
-75
-77
-77
-79
-79
-80
-80
-80
-80
-87
-87
-87
-87
-84
-84
-87
-87
-52
-52
-49
-49
-51
-51
-49
-49
-48
-48
-51
-51
-55
-55
-54
-54
-53
-53
-56
-56
-59
-59
-62
-62
-68
-68
-66
-66
-69
-69
-77
-77
-73
-73
-72
-72
-74
-74
-75
-75
-82
-82
-81
-81
-79
-79
-79
-79
-83
-83
-83
-83
-84
-84
-85
-85
-86
-86
-84
-84
-84
-84
-84
-84
-84
-84
-84
-84
-85
-85
-85
-85
-85
-85
-83
-83
-86
-86
-87
-87
-86
-86
-86
-86
-83
-83
-83
-83
-86
-86
-85
-85
-85
-85
-87
-87
-47
-47
-46
-46
-58
-58
-50
-50
-53
-53
-58
-58
-59
-59
-62
-62
-61
-61
-56
-56
-50
-50
-59
-59
-49
-49
-54
-54
-60
-60
-62
-62
-60
-60
-67
-67
-70
-70
-71
-71
-75
-75
-76
-76
-75
-75
-81
-81
-81
-81
-78
-78
-82
-82
-83
-83
-85
-85
-86
-86
-84
-84
-83
-83
-86
-86
-85
-85
-90
-90
-88
-88
-88
-88
-91
-91
-88
-88
-88
-88
-89
-89
-85
-85
-85
-85
-86
-86
-84
-84
-85
-85
-83
-83
-86
-86
-86
-86
-82
-82
-83
-83
-81
-81
-85
-85
-83
-83
-82
-82
-80
-80
-80
-80
-80
-80
-85
-85
-84
-84
-84
-84
-82
-82
-78
-78
-79
-79
-82
-82
-83
-83
-45
-45
-47
-47
-51
-51
-52
-52
-48
-48
-54
-54
-54
-54
-56
-56
-51
-51
-54
-54
-55
-55
-54
-54
-49
-49
-55
-55
-53
-53
-56
-56
-61
-61
-65
-65
-68
-68
-73
-73
-71
-71
-76
-76
-79
-79
-77
-77
-77
-77
-80
-80
-82
-82
-82
-82
-82
-82
-83
-83
-88
-88
-92
-92
-93
-93
-82
-82
-84
-84
-86
-86
-82
-82
-85
-85
-82
-82
-83
-83
-88
-88
-81
-81
-83
-83
-80
-80
-88
-88
-75
-75
-81
-81
-77
-77
-78
-78
