
0
0.0003581
0.0119442
0.0108547
0.0096273
0.0088046
0.0117050
0.0206075
0.0257659
0.0377412
0.0574879
0.0555556
0.0680168
0.0714962
0.0810930
0.0795267
0.0904935
0.1023898
0.1078450
0.1139149
0.1106943
0.0998769
0.1181675
0.1113303
0.0968420
