
5.86125720136
0.928152463822
0.166097253062
0.0833926227085
0.0493611794613
0.161659162304
0.477321830694
0.381469363598
0.993700677482
1.59573125978
0.238876792333
1.11007778072
0.264712441642
0.812825025406
0.107594795984
0.960222037661
0.967903923115
0.46280465333
0.566520878243
0.186936283518
0.35671749196
1.33596512164
0.584698678643
1.00449077669
