
1552043357.7
1552043359.05
1552043360.44
1552043361.77
1552043363.1
1552043364.44
1552043366.6
1552043368.66
1552043370.0
1552043371.32
1552043372.65
1552043374.04
1552043375.37
1552043376.7
1552043378.09
1552043379.52
1552043380.92
1552043382.3
1552043383.65
1552043385.0
1552043386.39
1552043388.89
1552043390.62
1552043391.96
1552043393.34
