
-44
-44
-46
-46
-49
-49
-53
-53
-55
-55
-64
-64
-72
-72
-72
-72
-77
-77
-79
-79
-82
-82
-82
-82
-83
-83
-83
-83
-82
-82
-85
-85
-84
-84
-88
-88
-87
-87
-86
-86
-87
-87
-85
-85
-81
-81
-89
-89
-88
-88
-87
-87
-43
-43
-46
-46
-54
-54
-52
-52
-57
-57
-56
-56
-59
-59
-62
-62
-69
-69
-74
-74
-74
-74
-76
-76
-81
-81
-81
-81
-82
-82
-87
-87
-90
-90
-85
-85
-87
-87
-86
-86
-86
-86
-89
-89
-41
-41
-41
-41
-54
-54
-54
-54
-49
-49
-52
-52
-55
-55
-61
-61
-64
-64
-69
-69
-75
-75
-75
-75
-78
-78
-79
-79
-81
-81
-81
-81
-83
-83
-85
-85
-86
-86
-87
-87
-86
-86
-84
-84
-88
-88
-86
-86
-85
-85
