HelloHelloHello
Hello
Hello
Hello
Hello
Hello
Hello
Hello
Hello
Hello
Hello
Hello

Hello
Hello
Hello
Hello
Distance_recvHello
Hello
1.07382490678Hello
1.07382490678Hello
1.07382490678Hello
1.07382490678Hello
1.07382490678
Hello
1.07382490678
Hello
1.07382490678
Hello
1.07382490678
Hello
1.07382490678
Hello
Hello
Hello
Hello
Hello
1.07382490678
Hello
1.07382490678
Hello

1.07382490678
Hello

1.07382490678
1523809468.43Hello

1.07382490678
1523810934.88Hello

1.07382490678
1523810964.34Hello

1.07382490678
1523813857.85Hello

1.07382490678
1523813871.09Hello

1.07382490678
1523813872.43Hello

1.07382490678
1523813873.17Hello

1.07382490678
1523813873.77Hello

1.07382490678
1523813889.33Hello

1.07382490678
1523813906.48Hello

1.07382490678
1523813907.23Hello

1.07382490678
1523813908.24
1.07382490678
1523813952.53
1.07382490678
1523813953.33
1.07382490678
1523813954.08
1.07382490678
1523813954.75
1.07382490678
1523813955.33
1.07382490678
1523813955.86
1.07382490678
1523813956.47
1.07382490678
1523813957.02
1.07382490678
1523813957.69
1.07382490678
1523813958.28
1.07382490678
1523813958.91
1.07382490678
1523813959.57
1.07382490678
1523814053.69
1.07382490678
1523814054.28
1.07382490678
1523814054.84
1.07382490678
1523814055.39
1.07382490678
1523814056.0
1.07382490678
1523814058.24
1.07382490678
1523814085.27
1.07382490678
1523814085.91
1.07382490678
1523814086.55
1.07382490678
1523814088.04
1.07382490678
1523814101.02
1.07382490678
1523814101.64
1.07382490678
1523814102.19
1.07382490678
1523814102.77
1.07382490678
1523814103.75
1.07382490678
1523814105.49
1.07382490678
1523814106.35
1.07382490678
1523814107.07
1.07382490678
1523814109.49
1.07382490678
1523814793.08
1.07382490678
1523814819.92
1.07382490678
1523814863.16
1.07382490678
1523814899.47
1.07382490678
1523815022.55
1.07382490678
1523815303.37
1.07382490678
1523815378.65
1.07382490678
1523815585.05
1.07382490678
1523815596.49
1.07382490678
1523815599.47
1.07382490678
1523815661.11
1.07382490678
1523815678.61
1.07382490678
1523815680.38
1.07382490678
1523815722.77
1.07382490678
1523815724.41
1.07382490678
1523815778.53
1.07382490678
1523815893.56
1.07382490678
1523815942.27
1.07382490678
1523815962.79
1.07382490678
1523815999.11
1.07382490678
1523816049.29
1.07382490678
1523816075.85
1.07382490678
1523816141.05
1.07382490678
1523816143.66
1.7210108038
1523831581.67
1.7210108038
1523831666.91
1.7210108038
1523831668.83
1.7210108038
1523831669.79
1.7210108038
1523831670.36
1.7210108038
1523831671.02
1.7210108038
1523831671.63
1.7210108038
1523831672.15
1.7210108038
1523831672.77
1.7210108038
1523831966.81
1.7210108038
1523831973.88
1.7210108038
1524221816.46
1.7210108038
1532841502.7
1.7210108038
1532841511.13
1.7210108038
1532841511.98
1.7210108038
1532841512.62
1.7210108038
1532841513.23
1.7210108038
1532841513.8
1.7210108038
1532841514.3
1.7210108038
1532841514.75
1.7210108038
1532841515.13
1.7210108038
1532841515.52
1.7210108038
1532841515.87
1.7210108038
1532841516.23
1.7210108038
1532841516.62
1.7210108038
1532841517.0
1.7210108038
1532841517.42
1.7210108038
1532841517.8
1.7210108038
1532841518.13
1.7210108038
1532841518.54
1.7210108038
1532841518.95
1.7210108038
1532841519.35
1.7210108038
1532841520.1
1.7210108038
1532841520.56
1.7210108038
1532841520.98
1.7210108038
1532841521.37
1.7210108038
1532841521.72
1.7210108038
1532841522.12
1.7210108038
1532841522.5
1.7210108038
1532841522.87
1.7210108038
1533092643.18
0.296166134779
1548610938.41
0.296166134779
1548610940.7
0.296166134779
1548610943.49
0.296166134779
1548610945.26
0.296166134779
1548610947.76
0.296166134779
1548610949.84
0.296166134779
1548610952.72
0.296166134779
1548610955.36
0.296166134779
1548610957.53
0.296166134779
1548610960.42
0.296166134779
1548610963.02
0.296166134779
1548610965.52
0.296166134779
1548610968.24