

8.87294202669
1552043357.7
0.96024536383
1552043359.05
2.25037738591
1552043360.44
2.02946805201
1552043361.77
1.91855587017
1552043363.1
1.85241188216
1552043364.44
2.20159564807
1552043366.6
3.18487870579
1552043368.66
3.69604762027
1552043370.0
5.00773244821
1552043371.32
7.13005528243
1552043372.65
6.79801657298
1552043374.04
8.27441993665
1552043375.37
8.62648752695
1552043376.7
9.75631420374
1552043378.09
9.6024536383
1552043379.52
10.9467645826
1552043380.92
12.2824718765
1552043382.3
12.9072582247
1552043383.65
13.6720613563
1552043385.0
13.4122199026
1552043386.39
12.5204261727
1552043388.89
14.8316455401
1552043390.62
14.0481492215
1552043391.96
12.6619520742
1552043393.34