0
0.0027119
0.0052292
0.0091136
0.0111139
0.0263968
0.0474413
0.0453859
0.0646249
0.0724006
0.0871952
0.0847301
0.0896130
0.0881965
0.0859193
0.1001948
0.0964260
0.1208068
0.1151986
0.1052297
0.1054022
0.1004538
0.0833986
0.1220921
0.1130427
