1.2739060
1.5334377
1.9389881
2.1641640
3.7237459
5.8848744
5.7403725
7.7443308
8.6175671
10.2689315
10.1960862
10.8112749
10.7882947
10.6764773
12.2377275
11.9913414
14.5878373
14.2630256
13.5119088
13.6703366
13.3117916
11.7278419
15.8310341
15.1392523
