0.9638269
2.1345168
2.0403631
1.9308301
1.8606388
2.1725921
3.0958540
3.6444639
4.8879795
6.9325886
6.8173391
8.1498081
8.5916932
9.6603465
9.6181163
10.8370969
12.1635085
12.8527066
13.6113619
13.4444256
12.6286005
14.6487394
14.1165217
12.8068354
