0.96024536383
2.25037738591
2.02946805201
1.91855587017
1.85241188216
2.20159564807
3.18487870579
3.69604762027
5.00773244821
7.13005528243
6.79801657298
8.27441993665
8.62648752695
9.75631420374
9.6024536383
10.9467645826
12.2824718765
12.9072582247
13.6720613563
13.4122199026
12.5204261727
14.8316455401
14.0481492215
12.6619520742
