0.0267948907818
0.84222288608
0.0707922596998
0.0823556438217
0.0523815611993
0.144422834277
0.448185348927
0.409410399358
0.942057320373
1.5372998878
0.0829133173164
1.00185644844
0.332244395591
0.768815397586
0.0295316070129
0.870700369258
0.961167912439
0.510517057015
0.561966928589
0.12009804849
0.32633004
1.16771049488
0.397177342832
