0.197054661388
0.133093192505
0.160296587497
0.0886519304654
1.08304312239
1.6008357563
0.108648051345
1.49549109836
0.642085564231
0.760997392601
0.0360620300434
0.427214428758
0.0171494010322
0.0834458262404
1.12320149797
0.183870235658
1.8679825209
0.16240585
0.338340896541
0.118229709065
0.267570912661
1.1477895425
1.75350100449
0.380099904052
