0.000647051412869
0.039214835146
8.65529274591e-06
0.0326744886796
0.000479295033794
0.00032913386321
2.9843750667e-05
3.36065565895e-06
7.69230797893e-08
4.03225803406e-07
7.93650799242e-08
0.0342574020892
0.00120081964397
0.000110081964632
8.42519697684e-06
3.11475402532e-06
4.878048705e-07
7.87401586649e-07
0.011932936954
0.0191701634849
0.00175254094251
0.000159918696708
0.00807812650648
0.0037044532078
0.000384049574668
2.03149609349e-05
0.0593634137138
0.00202434421482
0.000165905514302
4.16528912488e-05
5.32786872753e-06
1.05511812608e-05
1.69918696552e-05
6.1417323756e-06
4.40944888506e-06
2.09836060652e-05
0.00404159758099
0.414978446775
0.0452937014675
0.0351283403894
0.375316492764
0.0292437012265
0.00267692917405
0.000252913389624
1.0076336318e-05
3.08661421957e-05
0.700012360633
0.0486559527493
0.00432100787973
0.00193476291693
1.12235393134
0.133832836655
0.0601100013436
0.168861019399
0.0155373440973
0.366450084243
0.00960739875168
0.854084816037
0.0778864735833
0.00656272760464
0.000633852444152
0.00157366583556
0.0268761198585
0.113022893151
0.0954800801739
0.889322822977
0.0695372227487
0.00633015877809
0.000555645157016
6.95312515541e-05
2.38888890698e-05
9.14728709206e-06
0.787850408235
0.0753677851178
0.0102543308626
0.0674836454066
0.00612546364014
0.137396931197
0.0347773445273
0.0926351583205
0.00865744
0.000810655718694
0.819876816557
0.0759832207448
0.0106126827623
0.0685324419739
0.00661677665088
0.000544881897946
0.0725460799385
0.191476888627
0.470789257205
0.099186032497
0.242845964806
0.0804514939528
0.1224652
0.390531580667
0.0704319114734
0.198630080869
0.941384213477
0.285719453109
0.778402105472
1.24897234463
0.064857946111
0.613198576402
0.0238463085669
0.0024779365267
0.000247952759629
2.38996928774
0.202741611909
1.14854786584
1.05224405559
0.243099557749
0.786161179377
0.0712574149757
0.00301234285714
0.00128363647492
0.00585412592072
0.000255378800796
0.000423700793764
0.000366911793008
0.000290378750117
0.000472301590878
0.000144274815463
0.000362142859885
0.00014923664774
0.000130000004769
4.77862529319e-05
9.22137444855e-05
0.00041672
2.59797271249
4.53825531273
0.46337650879
0.122028404121
0.18513777918
0.0757606098923
0.0150633334474
0.112277223072
0.272113141657
0.145767236116
0.038485373783
0.00369936510737
0.24775207189
0.796521275872
0.246387547498
0.63323964598
0.237677303387
0.106909603984
0.1541804
0.724360586033
0.0845356860936
0.943412102276
1.88695053075
0.276947303684
0.0600102371216
0.516387385776
0.300175081638
0.00540149784273
2.07653688936
0.170453810814
0.254960837226
0.271129953171
0.0167852347502
0.0356341272539
0.0962658282172
0.129982540667
0.2818312
0.0277027779875
0.070219365611
0.17873214421
0.264427248065
0.309447341761
0.833702021148
0.104813790484
0.2693648
1.83103593301
0.307616034075
0.762653476019
0.222523444834
0.201861917214
2.15418352921
0.184304401988
0.383029711387
0.509526987985
1.33877932491
0.0666341129205
0.390284337921
0.424926987344
0.442742588021
0.179356191834
0.617348894859
0.0573945405666
0.00506210464611
0.000892301594057
0.423113835275
0.0142746571121
0.00161685041798
0.150748647165
0.695081786086
0.368849634432
0.112320710348
0.356059209045
0.265618317434
0.9396257214
1.22674604304
0.142631865129
0.339495954951
0.041289365392
0.840170879377
0.186526844429
0.230089446187
0.37242402134
0.0737374608758
0.328986113602
0.0346480161354
0.172687717467
0.435345912049
0.384748737844
0.241275239922
0.195140711592
0.469158281304
0.187618776112
0.0520022842454
0.7924916
0.441350628382
0.160951569978
0.876856679522
0.220008255634
0.0580073237057
1.66125341077
0.105498445526
0.184604664552
0.669073080913
0.266383732176
0.802258202981
0.431399844536
0.179443782222
0.714156782377
0.983096
0.168418731434
2.30701999524
0.364017939264
0.820645524134
1.62357705181
0.402164368124
1.25611524761
0.435627880557
0.406796699022
1.43838969343
0.334598970787
0.180845052239
0.206749609404
0.226996509655
0.715804291134
0.110654604012
0.317786044415
0.804233455476
0.249855201753
1.08300508756
0.265760726599
0.657816169633
0.441612130594
0.518841220406
0.0493607881428
1.91930267925
0.172580238812
0.321386540259
0.0993874619437
0.570737907058
0.69710111283
0.954966594532
0.0617993710067
0.216046421651
0.0528131320778
0.0445655434122
0.221105357651
0.0361024605908
0.15239680055
0.0759625016979
0.0493024606908
0.045833968601
0.0192672223681
0.115970982985
0.178993782215
0.0678057281526
0.124521746975
0.482441590954
0.491755400549
0.447133892274
0.980711277267
0.126021655436
0.874350879271
0.767962021342
0.152701270997
0.435463257265
0.868836908179
0.654293692701
0.0309870637267
0.00283110240472
0.39471088
2.25653947927
2.31553082217
0.551478967285
1.2531937952
3.15659827787
0.513277881723
0.387054887702
0.0430433336592
0.375224680923
0.507119686379
2.28168977918
0.682085458436
1.39674794708
0.425685990644
2.72482311178
1.40952064
1.46114453487
0.635548472907
