
3.50708436738
0.231428296651
0.0363749499095
0.0540566691447
0.247855135455
0.06201040989
0.170952274849
0.099100947926
0.0464265338673
0.0553225172203
0.0257622815363
0.125592072435
0.208639224858
0.0919310753667
0.143952539891
0.517732442633
0.492090551106
0.44212480618
1.03301203202
0.236034860726
0.973599888472
0.759533051362
0.248200801355
0.463203670379
0.99673607256
0.631994715941
0.101953751089
0.0
0.434257482392
2.442217789
2.30999932713
0.382384052445
1.43275306487
3.33785178301
0.878120285204
0.47674896305
0.0865662705203
0.416704593507
0.517862112301
2.55851422628
0.960585810387
1.45985579877
0.328871336593
3.03735345312
1.82643122471
1.46559974049
0.55311129003
