3:====Time stamp::====+ 2018-02-25-03:31:42 PM +07-42-188927089
20:====Time stamp::====+ 2018-02-25-03:31:57 PM +07-57-398242908
11:	signal:  	-19 [-19] dBm
28:	signal:  	-26 [-26] dBm
3:====Time stamp::====+ 2018-02-25-03:31:57 PM +07-57-444655328
11:	signal:  	-26 [-26] dBm
3:====Time stamp::====+ 2018-02-25-03:31:57 PM +07-57-490735823
11:	signal:  	-26 [-26] dBm
3:====Time stamp::====+ 2018-02-25-03:31:57 PM +07-57-535076168
11:	signal:  	-26 [-26] dBm
3:====Time stamp::====+ 2018-02-25-03:31:57 PM +07-57-558948625
11:	signal:  	-26 [-26] dBm
3:====Time stamp::====+ 2018-02-25-03:31:57 PM +07-57-582841343
11:	signal:  	-26 [-26] dBm
3:====Time stamp::====+ 2018-02-25-03:31:57 PM +07-57-606809842
11:	signal:  	-26 [-26] dBm
3:====Time stamp::====+ 2018-02-25-03:31:57 PM +07-57-630596466
11:	signal:  	-26 [-26] dBm
3:====Time stamp::====+ 2018-02-25-03:31:57 PM +07-57-654590850
11:	signal:  	-26 [-26] dBm
3:====Time stamp::====+ 2018-02-25-03:31:57 PM +07-57-678853358
11:	signal:  	-26 [-26] dBm
3:====Time stamp::====+ 2018-02-25-03:31:57 PM +07-57-702847325
11:	signal:  	-26 [-26] dBm
3:====Time stamp::====+ 2018-02-25-03:31:57 PM +07-57-726725981
11:	signal:  	-26 [-26] dBm
3:====Time stamp::====+ 2018-02-25-03:31:57 PM +07-57-750629427
11:	signal:  	-26 [-26] dBm
3:====Time stamp::====+ 2018-02-25-03:31:57 PM +07-57-774703603
11:	signal:  	-26 [-26] dBm
3:====Time stamp::====+ 2018-02-25-03:31:57 PM +07-57-798866476
11:	signal:  	-26 [-26] dBm
3:====Time stamp::====+ 2018-02-25-03:31:57 PM +07-57-822881901
11:	signal:  	-26 [-26] dBm
3:====Time stamp::====+ 2018-02-25-03:31:57 PM +07-57-847082639
11:	signal:  	-26 [-26] dBm
3:====Time stamp::====+ 2018-02-25-03:31:57 PM +07-57-871139158
11:	signal:  	-26 [-26] dBm
3:====Time stamp::====+ 2018-02-25-03:31:57 PM +07-57-895141979
11:	signal:  	-26 [-26] dBm
3:====Time stamp::====+ 2018-02-25-03:31:57 PM +07-57-919020114
11:	signal:  	-26 [-26] dBm
3:====Time stamp::====+ 2018-02-25-03:31:57 PM +07-57-942990852
11:	signal:  	-26 [-26] dBm
3:====Time stamp::====+ 2018-02-25-03:31:57 PM +07-57-967014038
11:	signal:  	-26 [-26] dBm
3:====Time stamp::====+ 2018-02-25-03:31:57 PM +07-57-991167171
11:	signal:  	-26 [-26] dBm
3:====Time stamp::====+ 2018-02-25-03:31:58 PM +07-58-015333638
11:	signal:  	-26 [-26] dBm
3:====Time stamp::====+ 2018-02-25-03:31:58 PM +07-58-039312032
11:	signal:  	-26 [-26] dBm
3:====Time stamp::====+ 2018-02-25-03:31:58 PM +07-58-063313656
11:	signal:  	-26 [-26] dBm
3:====Time stamp::====+ 2018-02-25-03:31:58 PM +07-58-087498820
11:	signal:  	-26 [-26] dBm
3:====Time stamp::====+ 2018-02-25-03:31:58 PM +07-58-111480548
11:	signal:  	-26 [-26] dBm
3:====Time stamp::====+ 2018-02-25-03:31:58 PM +07-58-135672223
11:	signal:  	-26 [-26] dBm
3:====Time stamp::====+ 2018-02-25-03:31:58 PM +07-58-159688222
11:	signal:  	-26 [-26] dBm
3:====Time stamp::====+ 2018-02-25-03:31:58 PM +07-58-184101198
11:	signal:  	-26 [-26] dBm
3:====Time stamp::====+ 2018-02-25-03:31:58 PM +07-58-208125113
11:	signal:  	-26 [-26] dBm
3:====Time stamp::====+ 2018-02-25-03:31:58 PM +07-58-232165069
11:	signal:  	-26 [-26] dBm
3:====Time stamp::====+ 2018-02-25-03:31:58 PM +07-58-271179758
11:	signal:  	-26 [-26] dBm
3:====Time stamp::====+ 2018-02-25-03:31:58 PM +07-58-316694526
11:	signal:  	-26 [-26] dBm
3:====Time stamp::====+ 2018-02-25-03:31:58 PM +07-58-363052936
11:	signal:  	-26 [-26] dBm
3:====Time stamp::====+ 2018-02-25-03:31:58 PM +07-58-409219107
11:	signal:  	-26 [-26] dBm
3:====Time stamp::====+ 2018-02-25-03:31:58 PM +07-58-455220487
11:	signal:  	-26 [-26] dBm
3:====Time stamp::====+ 2018-02-25-03:31:58 PM +07-58-501570459
11:	signal:  	-26 [-26] dBm
3:====Time stamp::====+ 2018-02-25-03:31:58 PM +07-58-546926217
11:	signal:  	-26 [-26] dBm
3:====Time stamp::====+ 2018-02-25-03:31:58 PM +07-58-593237023
11:	signal:  	-26 [-26] dBm
3:====Time stamp::====+ 2018-02-25-03:31:58 PM +07-58-639004341
11:	signal:  	-26 [-26] dBm
3:====Time stamp::====+ 2018-02-25-03:31:58 PM +07-58-685303324
11:	signal:  	-26 [-26] dBm
3:====Time stamp::====+ 2018-02-25-03:31:58 PM +07-58-731305538
11:	signal:  	-26 [-26] dBm
3:====Time stamp::====+ 2018-02-25-03:31:58 PM +07-58-762343904
11:	signal:  	-26 [-26] dBm
3:====Time stamp::====+ 2018-02-25-03:31:58 PM +07-58-786374850
11:	signal:  	-26 [-26] dBm
3:====Time stamp::====+ 2018-02-25-03:31:58 PM +07-58-810271735
11:	signal:  	-26 [-26] dBm
3:====Time stamp::====+ 2018-02-25-03:31:58 PM +07-58-834375650
11:	signal:  	-26 [-26] dBm
3:====Time stamp::====+ 2018-02-25-03:31:58 PM +07-58-858303107
11:	signal:  	-26 [-26] dBm
3:====Time stamp::====+ 2018-02-25-03:31:58 PM +07-58-882437803
11:	signal:  	-26 [-26] dBm
3:====Time stamp::====+ 2018-02-25-03:31:58 PM +07-58-906573853
11:	signal:  	-26 [-26] dBm
3:====Time stamp::====+ 2018-02-25-03:31:58 PM +07-58-930577091
11:	signal:  	-26 [-26] dBm
3:====Time stamp::====+ 2018-02-25-03:31:58 PM +07-58-954737776
11:	signal:  	-26 [-26] dBm
3:====Time stamp::====+ 2018-02-25-03:31:58 PM +07-58-978731952
11:	signal:  	-26 [-26] dBm
3:====Time stamp::====+ 2018-02-25-03:31:59 PM +07-59-002676961
11:	signal:  	-26 [-26] dBm
3:====Time stamp::====+ 2018-02-25-03:31:59 PM +07-59-026756085
11:	signal:  	-26 [-26] dBm
3:====Time stamp::====+ 2018-02-25-03:31:59 PM +07-59-050723750
11:	signal:  	-26 [-26] dBm
3:====Time stamp::====+ 2018-02-25-03:31:59 PM +07-59-074829696
11:	signal:  	-26 [-26] dBm
3:====Time stamp::====+ 2018-02-25-03:31:59 PM +07-59-098767257
11:	signal:  	-26 [-26] dBm
3:====Time stamp::====+ 2018-02-25-03:31:59 PM +07-59-122902943
11:	signal:  	-26 [-26] dBm
3:====Time stamp::====+ 2018-02-25-03:31:59 PM +07-59-146888160
11:	signal:  	-26 [-26] dBm
3:====Time stamp::====+ 2018-02-25-03:31:59 PM +07-59-170907804
11:	signal:  	-26 [-26] dBm
3:====Time stamp::====+ 2018-02-25-03:31:59 PM +07-59-195008907
11:	signal:  	-26 [-26] dBm
3:====Time stamp::====+ 2018-02-25-03:31:59 PM +07-59-219156259
11:	signal:  	-26 [-26] dBm
3:====Time stamp::====+ 2018-02-25-03:31:59 PM +07-59-243247361
11:	signal:  	-26 [-26] dBm
3:====Time stamp::====+ 2018-02-25-03:31:59 PM +07-59-267303776
11:	signal:  	-26 [-26] dBm
3:====Time stamp::====+ 2018-02-25-03:31:59 PM +07-59-291285400
11:	signal:  	-26 [-26] dBm
3:====Time stamp::====+ 2018-02-25-03:31:59 PM +07-59-315421033
11:	signal:  	-26 [-26] dBm
3:====Time stamp::====+ 2018-02-25-03:31:59 PM +07-59-339397084
11:	signal:  	-26 [-26] dBm
3:====Time stamp::====+ 2018-02-25-03:31:59 PM +07-59-363576936
11:	signal:  	-26 [-26] dBm
3:====Time stamp::====+ 2018-02-25-03:31:59 PM +07-59-387769861
11:	signal:  	-26 [-26] dBm
3:====Time stamp::====+ 2018-02-25-03:31:59 PM +07-59-411462944
11:	signal:  	-26 [-26] dBm
3:====Time stamp::====+ 2018-02-25-03:31:59 PM +07-59-435590505
11:	signal:  	-26 [-26] dBm
3:====Time stamp::====+ 2018-02-25-03:31:59 PM +07-59-469065736
11:	signal:  	-26 [-26] dBm
3:====Time stamp::====+ 2018-02-25-03:31:59 PM +07-59-517289243
11:	signal:  	-26 [-26] dBm
3:====Time stamp::====+ 2018-02-25-03:31:59 PM +07-59-563792496
11:	signal:  	-26 [-26] dBm
3:====Time stamp::====+ 2018-02-25-03:31:59 PM +07-59-609740126
11:	signal:  	-26 [-26] dBm
3:====Time stamp::====+ 2018-02-25-03:31:59 PM +07-59-656147130
11:	signal:  	-26 [-26] dBm
3:====Time stamp::====+ 2018-02-25-03:31:59 PM +07-59-702354915
11:	signal:  	-26 [-26] dBm
3:====Time stamp::====+ 2018-02-25-03:31:59 PM +07-59-748880460
11:	signal:  	-26 [-26] dBm
3:====Time stamp::====+ 2018-02-25-03:31:59 PM +07-59-795405588
11:	signal:  	-26 [-26] dBm
3:====Time stamp::====+ 2018-02-25-03:31:59 PM +07-59-841257593
11:	signal:  	-26 [-26] dBm
3:====Time stamp::====+ 2018-02-25-03:31:59 PM +07-59-886723507
11:	signal:  	-26 [-26] dBm
3:====Time stamp::====+ 2018-02-25-03:31:59 PM +07-59-933337593
11:	signal:  	-26 [-26] dBm
3:====Time stamp::====+ 2018-02-25-03:31:59 PM +07-59-979387462
11:	signal:  	-26 [-26] dBm
3:====Time stamp::====+ 2018-02-25-03:32:00 PM +07-00-025676029
11:	signal:  	-26 [-26] dBm
3:====Time stamp::====+ 2018-02-25-03:32:00 PM +07-00-072279021
11:	signal:  	-26 [-26] dBm
3:====Time stamp::====+ 2018-02-25-03:32:00 PM +07-00-118414827
11:	signal:  	-26 [-26] dBm
3:====Time stamp::====+ 2018-02-25-03:32:00 PM +07-00-164607040
11:	signal:  	-26 [-26] dBm
3:====Time stamp::====+ 2018-02-25-03:32:00 PM +07-00-211363730
11:	signal:  	-26 [-26] dBm
3:====Time stamp::====+ 2018-02-25-03:32:00 PM +07-00-256885893
11:	signal:  	-26 [-26] dBm
3:====Time stamp::====+ 2018-02-25-03:32:00 PM +07-00-302791596
11:	signal:  	-26 [-26] dBm
